{
  "project" : {
    "id" : "botforclass-249847117-XAl",
    "name" : "botforclass-249847117-XAl",
    "folder" : "/jaicp"
  },
  "settings" : {
    "language" : "ru",
    "spellingCorrection" : false,
    "classificationAlgorithm" : "sts",
    "timezone" : "UTC",
    "extendedSettings" : {
      "useShared" : false
    },
    "shared" : false
  },
  "intents" : [ {
    "id" : 5661344,
    "path" : "/BuyTicket",
    "enabled" : true,
    "shared" : false,
    "phrases" : [ {
      "text" : "купить билет"
    }, {
      "text" : "хочу купить билет"
    } ],
    "patterns" : [ "~билет" ],
    "priority" : 0
  }, {
    "id" : 5290720,
    "path" : "/hello",
    "enabled" : true,
    "shared" : false,
    "phrases" : [ {
      "text" : "привет"
    }, {
      "text" : "привет привет "
    }, {
      "text" : "приветище"
    } ],
    "patterns" : [ ],
    "priority" : 0
  }, {
    "id" : 5290719,
    "path" : "/пока",
    "enabled" : true,
    "shared" : false,
    "phrases" : [ {
      "text" : "пока"
    } ],
    "patterns" : [ ],
    "priority" : 0
  } ],
  "entities" : [ ],
  "enabledSystemEntities" : [ "mystem.geo", "pymorphy.name", "duckling.number", "duckling.time", "duckling.date", "duckling.duration", "duckling.phone-number", "duckling.email", "duckling.url" ],
  "spellerDictionary" : [ ],
  "systemEntities" : [ {
    "name" : "mystem.geo",
    "enabled" : true
  }, {
    "name" : "mystem.persn",
    "enabled" : false
  }, {
    "name" : "mystem.obsc",
    "enabled" : false
  }, {
    "name" : "mystem.patrn",
    "enabled" : false
  }, {
    "name" : "mystem.famn",
    "enabled" : false
  }, {
    "name" : "pymorphy.romn",
    "enabled" : false
  }, {
    "name" : "pymorphy.latn",
    "enabled" : false
  }, {
    "name" : "pymorphy.numb",
    "enabled" : false
  }, {
    "name" : "pymorphy.intg",
    "enabled" : false
  }, {
    "name" : "pymorphy.abbr",
    "enabled" : false
  }, {
    "name" : "pymorphy.name",
    "enabled" : true
  }, {
    "name" : "pymorphy.surn",
    "enabled" : false
  }, {
    "name" : "pymorphy.patr",
    "enabled" : false
  }, {
    "name" : "pymorphy.geox",
    "enabled" : false
  }, {
    "name" : "pymorphy.orgn",
    "enabled" : false
  }, {
    "name" : "duckling.number",
    "version" : "v1",
    "enabled" : true
  }, {
    "name" : "duckling.ordinal",
    "version" : "v2",
    "enabled" : false
  }, {
    "name" : "duckling.amount-of-money",
    "version" : "v2",
    "enabled" : false
  }, {
    "name" : "duckling.distance",
    "version" : "v2",
    "enabled" : false
  }, {
    "name" : "duckling.time",
    "version" : "v1",
    "enabled" : true
  }, {
    "name" : "duckling.date",
    "version" : "v2",
    "enabled" : true
  }, {
    "name" : "duckling.time-of-day",
    "version" : "v2",
    "enabled" : false
  }, {
    "name" : "duckling.duration",
    "version" : "v1",
    "enabled" : true
  }, {
    "name" : "duckling.phone-number",
    "version" : "v1",
    "enabled" : true
  }, {
    "name" : "duckling.email",
    "version" : "v1",
    "enabled" : true
  }, {
    "name" : "duckling.url",
    "version" : "v1",
    "enabled" : true
  }, {
    "name" : "duckling.interval",
    "version" : "v2",
    "enabled" : false
  }, {
    "name" : "mlps-obscene.obscene",
    "enabled" : false
  }, {
    "name" : "zb.datetime",
    "enabled" : false
  }, {
    "name" : "zb.number",
    "enabled" : false
  } ]
}